rut nombre apellido_materno apellido_paterno fecha_nacimiento correo nro_celular
18038919-9	Regina	Lazaro	Torres	19-04-1954	ReginaLazaro@hotmail.cl	95938374
12287217-3	Gabriel	Godoy	Rojas	11-06-1955	GabrielGodoy@protonmail.com	90665261
18679123-1	Sonia	Sierra	Garreton	05-11-1986	SoniaSierra@gmail.com	96942464
14875222-2	Renata	Villar	Trujillo	26-02-1978	RenataVillar@gmail.com	87827095
12204438-6	Carlos	Manzano	Rojas	16-09-1988	CarlosManzano@protonmail.com	68429415
13331080-0	Tomas	Pereira	Naranjo	04-01-1979	TomasPereira@hotmail.cl	65975467
17742840-10	Julia	Garreton	Villar	05-04-1969	JuliaGarreton@gmail.com	67638829
15235670-6	Manuela	Manzano	Bernal	07-04-1991	ManuelaManzano@outlook.com	73440568
15774000-8	Felipe	Benitez	Benitez	02-07-1963	FelipeBenitez@outlook.com	92447058
16073403-5	Rosa	Piñera	Bravo	16-06-1989	RosaPiñera@hotmail.cl	77836509
17932256-0	Peter	Cabello	Fuentealba	20-09-1959	PeterCabello@outlook.com	99370410
20915935-10	Franco	Saiz	Carvajal	23-10-1950	FrancoSaiz@gmail.com	72903272
14808193-10	Lucia	Escudero	Pereira	24-12-1983	LuciaEscudero@gmail.com	56695637
15630648-7	Alexis	Hurtado	Ferreira	19-11-1976	AlexisHurtado@protonmail.com	82748735
15872436-7	Gino	Cabello	Saiz	25-05-1962	GinoCabello@outlook.com	87219887
20205594-10	Clauda	Cruz	Cabello	15-09-1989	ClaudaCruz@outlook.com	91817472
13643284-2	Elena	Piñera	Manzano	28-08-1969	ElenaPiñera@protonmail.com	82823499
15964833-8	Jonathan	Cruz	Aguirre	16-08-1962	JonathanCruz@hotmail.cl	70735237
14583668-9	Renata	Villablanca	Villablanca	06-06-1981	RenataVillablanca@outlook.com	68593562
13849216-8	Catalina	Fuentealba	Torres	08-02-1966	CatalinaFuentealba@gmail.com	94669940
20351647-9	Manuela	Real	Palma	11-10-1964	ManuelaReal@gmail.com	88745962
18871029-8	Leonor	Saiz	Valverde	06-08-1986	LeonorSaiz@gmail.com	56699894
15279311-1	Miguel	Paredes	Escudero	18-06-1976	MiguelParedes@protonmail.com	67523761
12038223-3	Esperanza	Rodriguez	Valenzuela	18-01-1956	EsperanzaRodriguez@hotmail.cl	68083987
19331603-4	Regina	Carvajal	Escobar	13-06-1967	ReginaCarvajal@gmail.com	64539426
20796537-5	Alejandra	Escudero	Escobar	17-11-1964	AlejandraEscudero@gmail.com	90952424
12371202-1	Ignacio	Segura	Carvajal	10-10-1970	IgnacioSegura@hotmail.cl	59546568
